…
friedman_posthoc(
  dat,
  dv = uptake,
  within = conc,
  id = Plant,
  p_adjust_method = "holm",
  ci_adjust_method = "bonferroni",
  missing = "complete_case"
)
#> # A tibble: 21 × 23
#>    design      method term  group1 group2 statistic_type statistic    df       p
#>    <chr>       <chr>  <chr> <chr>  <chr>  <chr>              <dbl> <dbl>   <dbl>
#>  1 nonparamet… paire… conc  95     175    W                      0    NA 4.88e-4
#>  2 nonparamet… paire… conc  95     250    W                      0    NA 4.88e-4
#>  3 nonparamet… paire… conc  95     350    W                      0    NA 4.88e-4
#>  4 nonparamet… paire… conc  95     500    W                      0    NA 4.88e-4
#>  5 nonparamet… paire… conc  95     675    W                      0    NA 4.88e-4
#>  6 nonparamet… paire… conc  95     1000   W                      0    NA 4.88e-4
#>  7 nonparamet… paire… conc  175    250    W                      1    NA 9.77e-4
#>  8 nonparamet… paire… conc  175    350    W                      1    NA 9.77e-4
#>  9 nonparamet… paire… conc  175    500    W                      1    NA 9.77e-4
#> 10 nonparamet… paire… conc  175    675    W                      0    NA 4.88e-4
#> # ℹ 11 more rows
#> # ℹ 14 more variables: p_adj <dbl>, p_adj_mark <chr>, p_adjust_method <chr>,
#> #   effect_size <dbl>, effect_size_type <chr>, ci_level <dbl>, ci_low <dbl>,
#> #   ci_high <dbl>, ci_adjust_method <chr>, ci_level_adj <dbl>,
#> #   ci_low_adj <dbl>, ci_high_adj <dbl>, n_pair <dbl>, missing <chr>
```
