…
## Examples

``` r
dat = datasets::CO2 %>%
  dplyr::filter(Type == "Quebec", Treatment == "chilled") %>%
  dplyr::mutate(conc = factor(conc))

rm_posthoc(
  dat, dv = uptake, within = conc, id = Plant,
  p_adjust_method = "holm",
  ci_adjust_method = "bonferroni",
  missing = "pairwise"
)
#> # A tibble: 21 × 23
#>    design  method term  group1 group2 statistic_type statistic    df     p p_adj
#>    <chr>   <chr>  <chr> <chr>  <chr>  <chr>              <dbl> <dbl> <dbl> <dbl>
#>  1 parame… paire… conc  95     175    t                  -3.17     2 0.087 0.696
#>  2 parame… paire… conc  95     250    t                  -7.56     2 0.017 0.291
#>  3 parame… paire… conc  95     350    t                  -6.92     2 0.02  0.303
#>  4 parame… paire… conc  95     500    t                  -7.50     2 0.017 0.291
#>  5 parame… paire… conc  95     675    t                 -12.2      2 0.007 0.133
#>  6 parame… paire… conc  95     1000   t                 -10.7      2 0.009 0.164
#>  7 parame… paire… conc  175    250    t                  -3.03     2 0.094 0.696
#>  8 parame… paire… conc  175    350    t                 -16.1      2 0.004 0.081
#>  9 parame… paire… conc  175    500    t                  -4.46     2 0.047 0.608
#> 10 parame… paire… conc  175    675    t                  -5.07     2 0.037 0.515
#> # ℹ 11 more rows
#> # ℹ 13 more variables: p_adj_mark <chr>, p_adjust_method <chr>,
#> #   effect_size <dbl>, effect_size_type <chr>, ci_level <dbl>, ci_low <dbl>,
#> #   ci_high <dbl>, ci_adjust_method <chr>, ci_level_adj <dbl>,
#> #   ci_low_adj <dbl>, ci_high_adj <dbl>, n_pair <dbl>, missing <chr>
```
